{
	"source": "UE",
	"applications": [
		{
			"app_key": "application.generated.ue.virtual-reality-bp-game-template-18319896.ue4editor.exe",
			"launch_type": "url",
			"url": "steam://launch/",
			"action_manifest_path": "C:/Users/MisterClass/Documents/UnrealProjects/ArchVisVR/Config/SteamVRBindings/steamvr_manifest.json",
			"strings":
			{
				"en_us":
				{
					"name": "Virtual Reality BP Game Template-18319896 [UE Editor]"
				}
			}
		}
	]
}